{
  "aggregations": {
    "type": {
      "buckets": [], 
      "doc_count_error_upper_bound": 0, 
      "sum_other_doc_count": 0
    }
  }, 
  "hits": {
    "hits": [
      {
        "created": "2018-01-19T17:46:44.390748+00:00", 
        "files": [
          {
            "bucket": "b270a0e6-6096-422d-9eb7-942c1aa80c5d", 
            "checksum": "md5:0b26e313ed4a7ca6904b0e9369e5b957", 
            "ePIC_PID": "http://hdl.handle.net/0000/testFile.txt", 
            "key": "testFile.txt", 
            "size": 19, 
            "version_id": "a2b097cb-0d2b-4910-b46a-45f18a6e2f58"
          }
        ], 
        "id": "83c139032021448b8cc07140d3fd5845", 
        "links": {
          "files": "https://trng-b2share.eudat.eu/api/files/b270a0e6-6096-422d-9eb7-942c1aa80c5d", 
          "self": "https://trng-b2share.eudat.eu/api/records/83c139032021448b8cc07140d3fd5845", 
          "versions": "https://trng-b2share.eudat.eu/api/records/a0ceb034aed941e3be68de6fecd09d05/versions"
        }, 
        "metadata": {
          "$schema": "https://trng-b2share.eudat.eu/api/communities/e9b9792e-79fb-4b07-b6b4-b9c2bd06d095/schemas/0#/json_schema", 
          "DOI": "http://doi.org/XXXX/b2share.83c139032021448b8cc07140d3fd5845", 
          "community": "e9b9792e-79fb-4b07-b6b4-b9c2bd06d095", 
          "community_specific": {}, 
          "ePIC_PID": "http://hdl.handle.net/0000/83c139032021448b8cc07140d3fd5845", 
          "open_access": true, 
          "owners": [
            32
          ], 
          "publication_state": "published", 
          "titles": [
            {
              "title": "TESTEBONITO2"
            }
          ]
        }, 
        "updated": "2018-01-19T17:46:44.390757+00:00"
      }, 
      {
        "created": "2018-01-19T17:46:36.540660+00:00", 
        "files": [
          {
            "bucket": "a9b52322-9a3f-4e4d-b20e-be9193c59860", 
            "checksum": "md5:0b26e313ed4a7ca6904b0e9369e5b957", 
            "ePIC_PID": "http://hdl.handle.net/0000/testFile.txt", 
            "key": "testFile.txt", 
            "size": 19, 
            "version_id": "d515fd47-6fc9-470b-b1c9-1c652043b36c"
          }
        ], 
        "id": "b87ecd1cac444ba39eb32cb2ca98e91f", 
        "links": {
          "files": "https://trng-b2share.eudat.eu/api/files/a9b52322-9a3f-4e4d-b20e-be9193c59860", 
          "self": "https://trng-b2share.eudat.eu/api/records/b87ecd1cac444ba39eb32cb2ca98e91f", 
          "versions": "https://trng-b2share.eudat.eu/api/records/029faf6e3604401d84fdd1dd1cab3abf/versions"
        }, 
        "metadata": {
          "$schema": "https://trng-b2share.eudat.eu/api/communities/e9b9792e-79fb-4b07-b6b4-b9c2bd06d095/schemas/0#/json_schema", 
          "DOI": "http://doi.org/XXXX/b2share.b87ecd1cac444ba39eb32cb2ca98e91f", 
          "community": "e9b9792e-79fb-4b07-b6b4-b9c2bd06d095", 
          "community_specific": {}, 
          "ePIC_PID": "http://hdl.handle.net/0000/b87ecd1cac444ba39eb32cb2ca98e91f", 
          "open_access": true, 
          "owners": [
            32
          ], 
          "publication_state": "published", 
          "titles": [
            {
              "title": "TESTEBONITO2"
            }
          ]
        }, 
        "updated": "2018-01-19T17:46:36.540669+00:00"
      }, 
      {
        "created": "2018-01-19T16:26:54.193493+00:00", 
        "files": [
          {
            "bucket": "2d3af417-0de0-4b88-86d9-320b2084a945", 
            "checksum": "md5:52c8d4fd37448be28d8052f29c526dc6", 
            "ePIC_PID": "http://hdl.handle.net/0000/porto_test_21.txt", 
            "key": "porto_test_21.txt", 
            "size": 35, 
            "version_id": "d9dc9170-cde6-4a50-8848-af1b2a8ed0e8"
          }
        ], 
        "id": "a6a91d8422fe43daa8cbce1e016f078d", 
        "links": {
          "files": "https://trng-b2share.eudat.eu/api/files/2d3af417-0de0-4b88-86d9-320b2084a945", 
          "self": "https://trng-b2share.eudat.eu/api/records/a6a91d8422fe43daa8cbce1e016f078d", 
          "versions": "https://trng-b2share.eudat.eu/api/records/34e1f36d64fd4cb18112ce6cf97c42e0/versions"
        }, 
        "metadata": {
          "$schema": "https://trng-b2share.eudat.eu/api/communities/d952913c-451e-4b5c-817e-d578dc8a4469/schemas/0#/json_schema", 
          "DOI": "http://doi.org/XXXX/b2share.a6a91d8422fe43daa8cbce1e016f078d", 
          "community": "d952913c-451e-4b5c-817e-d578dc8a4469", 
          "community_specific": {
            "27193e5b-97e6-4f6f-8e87-3694589bcebe": {
              "metadata_url": "https://data.lter-europe.net/deims/dataset/0f7f5684-7270-4799-a9fc-dc6109a83ec5"
            }
          }, 
          "creators": [
            {
              "creator_name": "Peterseil, Johannes "
            }
          ], 
          "descriptions": [
            {
              "description": "test", 
              "description_type": "Abstract"
            }
          ], 
          "ePIC_PID": "http://hdl.handle.net/0000/a6a91d8422fe43daa8cbce1e016f078d", 
          "open_access": true, 
          "owners": [
            12
          ], 
          "publication_state": "published", 
          "titles": [
            {
              "title": "Porto EUDAT Demo"
            }
          ]
        }, 
        "updated": "2018-01-19T16:26:54.193501+00:00"
      }, 
      {
        "created": "2018-01-19T11:55:53.378739+00:00", 
        "files": [
          {
            "bucket": "6298c100-ebe3-44d1-a5bb-35cbd3f5db66", 
            "checksum": "md5:8b146341241ffc25bd184096528c6c34", 
            "ePIC_PID": "http://hdl.handle.net/0000/r_datos_verimod_dm_CO_2015_0UTC_FP_B_m.csv", 
            "key": "r_datos_verimod_dm_CO_2015_0UTC_FP_B_m.csv", 
            "size": 664330, 
            "version_id": "2c65c4e2-c4b3-48be-b192-c79ae8006bd6"
          }
        ], 
        "id": "ba859b3846c949d6b995246707c321ab", 
        "links": {
          "files": "https://trng-b2share.eudat.eu/api/files/6298c100-ebe3-44d1-a5bb-35cbd3f5db66", 
          "self": "https://trng-b2share.eudat.eu/api/records/ba859b3846c949d6b995246707c321ab", 
          "versions": "https://trng-b2share.eudat.eu/api/records/a3467242a9644a0386df9becf2107862/versions"
        }, 
        "metadata": {
          "$schema": "https://trng-b2share.eudat.eu/api/communities/2854dbc2-59d7-4d6b-bdbd-a7bee231c7f0/schemas/2#/json_schema", 
          "DOI": "http://doi.org/XXXX/b2share.ba859b3846c949d6b995246707c321ab", 
          "community": "2854dbc2-59d7-4d6b-bdbd-a7bee231c7f0", 
          "community_specific": {
            "ca4ae35f-2c4d-4d13-87de-58ded2854141": {
              "co_valid": false, 
              "filter_status_type": [
                "G"
              ], 
              "no_valid": true, 
              "sensor_list": [
                "Aire0", 
                "Aire1"
              ]
            }
          }, 
          "ePIC_PID": "http://hdl.handle.net/0000/ba859b3846c949d6b995246707c321ab", 
          "open_access": true, 
          "owners": [
            159
          ], 
          "publication_state": "published", 
          "titles": [
            {
              "title": "tuneando set key"
            }
          ]
        }, 
        "updated": "2018-01-19T11:55:53.378748+00:00"
      }, 
      {
        "created": "2018-01-19T11:51:11.446930+00:00", 
        "files": [
          {
            "bucket": "976ce269-9799-44d9-b2d8-173fb57f4419", 
            "checksum": "md5:8b146341241ffc25bd184096528c6c34", 
            "ePIC_PID": "http://hdl.handle.net/0000/r_datos_verimod_dm_CO_2015_0UTC_FP_B_m.csv", 
            "key": "r_datos_verimod_dm_CO_2015_0UTC_FP_B_m.csv", 
            "size": 664330, 
            "version_id": "d9a0391e-9ecd-455c-a658-711c787d9bf8"
          }
        ], 
        "id": "598bfc7410ca481c81a4539567340c76", 
        "links": {
          "files": "https://trng-b2share.eudat.eu/api/files/976ce269-9799-44d9-b2d8-173fb57f4419", 
          "self": "https://trng-b2share.eudat.eu/api/records/598bfc7410ca481c81a4539567340c76", 
          "versions": "https://trng-b2share.eudat.eu/api/records/e13e459824b84bb6aca4c5f045e1cbdb/versions"
        }, 
        "metadata": {
          "$schema": "https://trng-b2share.eudat.eu/api/communities/2854dbc2-59d7-4d6b-bdbd-a7bee231c7f0/schemas/2#/json_schema", 
          "DOI": "http://doi.org/XXXX/b2share.598bfc7410ca481c81a4539567340c76", 
          "community": "2854dbc2-59d7-4d6b-bdbd-a7bee231c7f0", 
          "community_specific": {
            "ca4ae35f-2c4d-4d13-87de-58ded2854141": {
              "co_valid": false, 
              "filter_status_type": [
                "G"
              ], 
              "no_valid": true, 
              "sensor_list": [
                "Aire0", 
                "Aire1"
              ]
            }
          }, 
          "ePIC_PID": "http://hdl.handle.net/0000/598bfc7410ca481c81a4539567340c76", 
          "open_access": true, 
          "owners": [
            159
          ], 
          "publication_state": "published", 
          "titles": [
            {
              "title": "tuneando set key"
            }
          ]
        }, 
        "updated": "2018-01-19T11:51:11.446939+00:00"
      }, 
      {
        "created": "2018-01-18T17:46:07.058636+00:00", 
        "files": [
          {
            "bucket": "531b0dd2-7335-4ade-b5be-d4554f3c0f1b", 
            "checksum": "md5:0b26e313ed4a7ca6904b0e9369e5b957", 
            "ePIC_PID": "http://hdl.handle.net/0000/testFile.txt", 
            "key": "testFile.txt", 
            "size": 19, 
            "version_id": "a279171e-8b32-4830-b2a1-d40b49f72d75"
          }
        ], 
        "id": "aafd47f399f8469390d386a5ed806c6e", 
        "links": {
          "files": "https://trng-b2share.eudat.eu/api/files/531b0dd2-7335-4ade-b5be-d4554f3c0f1b", 
          "self": "https://trng-b2share.eudat.eu/api/records/aafd47f399f8469390d386a5ed806c6e", 
          "versions": "https://trng-b2share.eudat.eu/api/records/1c51f04a4ca540a1b5ecf8a02da86fc6/versions"
        }, 
        "metadata": {
          "$schema": "https://trng-b2share.eudat.eu/api/communities/e9b9792e-79fb-4b07-b6b4-b9c2bd06d095/schemas/0#/json_schema", 
          "DOI": "http://doi.org/XXXX/b2share.aafd47f399f8469390d386a5ed806c6e", 
          "community": "e9b9792e-79fb-4b07-b6b4-b9c2bd06d095", 
          "community_specific": {}, 
          "ePIC_PID": "http://hdl.handle.net/0000/aafd47f399f8469390d386a5ed806c6e", 
          "open_access": true, 
          "owners": [
            32
          ], 
          "publication_state": "published", 
          "titles": [
            {
              "title": "TESTEBONITO2"
            }
          ]
        }, 
        "updated": "2018-01-18T17:46:07.058645+00:00"
      }, 
      {
        "created": "2018-01-18T17:45:59.371731+00:00", 
        "files": [
          {
            "bucket": "a3c0ead7-ec8c-41f0-8df9-b4c9aa170423", 
            "checksum": "md5:0b26e313ed4a7ca6904b0e9369e5b957", 
            "ePIC_PID": "http://hdl.handle.net/0000/testFile.txt", 
            "key": "testFile.txt", 
            "size": 19, 
            "version_id": "0d2077e3-a87d-445e-826c-8a57d8f37ef5"
          }
        ], 
        "id": "e8d5dd66d11d4726b229ea09ced6ded2", 
        "links": {
          "files": "https://trng-b2share.eudat.eu/api/files/a3c0ead7-ec8c-41f0-8df9-b4c9aa170423", 
          "self": "https://trng-b2share.eudat.eu/api/records/e8d5dd66d11d4726b229ea09ced6ded2", 
          "versions": "https://trng-b2share.eudat.eu/api/records/d68bbc7c63ed4e27a6e1e0546b056bdc/versions"
        }, 
        "metadata": {
          "$schema": "https://trng-b2share.eudat.eu/api/communities/e9b9792e-79fb-4b07-b6b4-b9c2bd06d095/schemas/0#/json_schema", 
          "DOI": "http://doi.org/XXXX/b2share.e8d5dd66d11d4726b229ea09ced6ded2", 
          "community": "e9b9792e-79fb-4b07-b6b4-b9c2bd06d095", 
          "community_specific": {}, 
          "ePIC_PID": "http://hdl.handle.net/0000/e8d5dd66d11d4726b229ea09ced6ded2", 
          "open_access": true, 
          "owners": [
            32
          ], 
          "publication_state": "published", 
          "titles": [
            {
              "title": "TESTEBONITO2"
            }
          ]
        }, 
        "updated": "2018-01-18T17:45:59.371741+00:00"
      }, 
      {
        "created": "2018-01-18T12:05:39.516053+00:00", 
        "files": [
          {
            "bucket": "91548b29-2405-4d38-b86f-433d3d817d46", 
            "checksum": "md5:acf3cbc6f26d1b1c5dab77fc3118c60b", 
            "ePIC_PID": "http://hdl.handle.net/0000/SkyArrow_150624.JPG", 
            "key": "SkyArrow_150624.JPG", 
            "size": 2295688, 
            "version_id": "60c36c79-b01e-4184-b9d4-b77a9a037fb9"
          }
        ], 
        "id": "f12a9ce8555644c19190244bc09e1b0a", 
        "links": {
          "files": "https://trng-b2share.eudat.eu/api/files/91548b29-2405-4d38-b86f-433d3d817d46", 
          "self": "https://trng-b2share.eudat.eu/api/records/f12a9ce8555644c19190244bc09e1b0a", 
          "versions": "https://trng-b2share.eudat.eu/api/records/d0cfcffe1a224a10883c609a02d77939/versions"
        }, 
        "metadata": {
          "$schema": "https://trng-b2share.eudat.eu/api/communities/e9b9792e-79fb-4b07-b6b4-b9c2bd06d095/schemas/0#/json_schema", 
          "DOI": "http://doi.org/XXXX/b2share.f12a9ce8555644c19190244bc09e1b0a", 
          "community": "e9b9792e-79fb-4b07-b6b4-b9c2bd06d095", 
          "community_specific": {}, 
          "contact_email": "jutta.holst@nateko.lu.se", 
          "creators": [
            {
              "creator_name": "Jutta Holst"
            }
          ], 
          "descriptions": [
            {
              "description": "fotography of the Lund University Sky Arrow Research aircraft", 
              "description_type": "Other"
            }
          ], 
          "disciplines": [
            "2.7.4 \u2192 Geography \u2192 Physical geography"
          ], 
          "ePIC_PID": "http://hdl.handle.net/0000/f12a9ce8555644c19190244bc09e1b0a", 
          "keywords": [
            "MEMO2"
          ], 
          "license": {
            "license": "Creative Commons Attribution (CC-BY)", 
            "license_uri": "http://creativecommons.org/licenses/by/4.0/"
          }, 
          "open_access": true, 
          "owners": [
            163
          ], 
          "publication_date": "2018-01-18", 
          "publication_state": "published", 
          "titles": [
            {
              "title": "SkyArrow_ResearchAircraft_picture"
            }
          ]
        }, 
        "updated": "2018-01-18T12:05:39.516062+00:00"
      }, 
      {
        "created": "2018-01-18T12:02:34.274894+00:00", 
        "files": [
          {
            "bucket": "d5001514-5f6f-47f5-8ec2-5ed8c3629b7f", 
            "checksum": "md5:52c8d4fd37448be28d8052f29c526dc6", 
            "ePIC_PID": "http://hdl.handle.net/0000/porto_test_0.txt", 
            "key": "porto_test_0.txt", 
            "size": 35, 
            "version_id": "d33cf32d-a7fd-47ff-9d62-1d1d66c98149"
          }
        ], 
        "id": "01c54597e7254028a25959e4c419a1df", 
        "links": {
          "files": "https://trng-b2share.eudat.eu/api/files/d5001514-5f6f-47f5-8ec2-5ed8c3629b7f", 
          "self": "https://trng-b2share.eudat.eu/api/records/01c54597e7254028a25959e4c419a1df", 
          "versions": "https://trng-b2share.eudat.eu/api/records/d26dc973fcf74e868b7d1f4b44d20cd0/versions"
        }, 
        "metadata": {
          "$schema": "https://trng-b2share.eudat.eu/api/communities/d952913c-451e-4b5c-817e-d578dc8a4469/schemas/0#/json_schema", 
          "DOI": "http://doi.org/XXXX/b2share.01c54597e7254028a25959e4c419a1df", 
          "community": "d952913c-451e-4b5c-817e-d578dc8a4469", 
          "community_specific": {
            "27193e5b-97e6-4f6f-8e87-3694589bcebe": {
              "metadata_url": "https://data.lter-europe.net/deims/dataset/0b70297c-e470-4659-aff0-506875a024ae"
            }
          }, 
          "creators": [
            {
              "creator_name": "Peterseil, Johannes "
            }
          ], 
          "descriptions": [
            {
              "description": "test", 
              "description_type": "Abstract"
            }
          ], 
          "ePIC_PID": "http://hdl.handle.net/0000/01c54597e7254028a25959e4c419a1df", 
          "open_access": true, 
          "owners": [
            12
          ], 
          "publication_state": "published", 
          "titles": [
            {
              "title": "EUDAT Porto, test dataset"
            }
          ]
        }, 
        "updated": "2018-01-18T12:02:34.274903+00:00"
      }, 
      {
        "created": "2018-01-18T12:00:57.216825+00:00", 
        "files": [], 
        "id": "a796c881b66b40be994e950b3e598889", 
        "links": {
          "self": "https://trng-b2share.eudat.eu/api/records/a796c881b66b40be994e950b3e598889", 
          "versions": "https://trng-b2share.eudat.eu/api/records/d4e1e3773f3142d99d6bac946301f4ea/versions"
        }, 
        "metadata": {
          "$schema": "https://trng-b2share.eudat.eu/api/communities/d952913c-451e-4b5c-817e-d578dc8a4469/schemas/0#/json_schema", 
          "DOI": "http://doi.org/XXXX/b2share.a796c881b66b40be994e950b3e598889", 
          "community": "d952913c-451e-4b5c-817e-d578dc8a4469", 
          "community_specific": {
            "27193e5b-97e6-4f6f-8e87-3694589bcebe": {
              "metadata_url": "https://data.lter-europe.net/deims/dataset/0b70297c-e470-4659-aff0-506875a024ae"
            }
          }, 
          "creators": [
            {
              "creator_name": "Peterseil, Johannes "
            }
          ], 
          "descriptions": [
            {
              "description": "test", 
              "description_type": "Abstract"
            }
          ], 
          "ePIC_PID": "http://hdl.handle.net/0000/a796c881b66b40be994e950b3e598889", 
          "open_access": true, 
          "owners": [
            12
          ], 
          "publication_state": "published", 
          "titles": [
            {
              "title": "EUDAT Porto, test dataset"
            }
          ]
        }, 
        "updated": "2018-01-18T12:00:57.216836+00:00"
      }
    ], 
    "total": 2196
  }, 
  "links": {
    "next": "https://trng-b2share.eudat.eu/api/records/?size=10&page=2&sort=mostrecent", 
    "self": "https://trng-b2share.eudat.eu/api/records/?size=10&page=1&sort=mostrecent"
  }
}